GHDL/mux/mux4_1/mux4_1.vcd
$date
  Fri Oct 19 01:17:40 2018
$end
$version
  GHDL v0
$end
$timescale
  1 fs
$end
$var reg 1 ! sel1 $end
$var reg 1 " sel0 $end
$var reg 1 # a $end
$var reg 1 $ b $end
$var reg 1 % c $end
$var reg 1 & d $end
$var reg 1 ' z $end
$scope module uut $end
$var reg 1 ( sel1 $end
$var reg 1 ) sel0 $end
$var reg 1 * a $end
$var reg 1 + b $end
$var reg 1 , c $end
$var reg 1 - d $end
$var reg 1 . z $end
$var reg 1 / x $end
$var reg 1 0 y $end
$scope module gen_mux2_1(0) $end
$scope module first_mux $end
$scope module m1 $end
$var reg 1 1 sel $end
$var reg 1 2 a $end
$var reg 1 3 b $end
$var reg 1 4 x $end
$upscope $end
$upscope $end
$upscope $end
$scope module gen_mux2_1(1) $end
$scope module second_mux $end
$scope module m2 $end
$var reg 1 5 sel $end
$var reg 1 6 a $end
$var reg 1 7 b $end
$var reg 1 8 x $end
$upscope $end
$upscope $end
$upscope $end
$scope module gen_mux2_1(2) $end
$scope module third_mux $end
$scope module m3 $end
$var reg 1 9 sel $end
$var reg 1 : a $end
$var reg 1 ; b $end
$var reg 1 < x $end
$upscope $end
$upscope $end
$upscope $end
$scope module gen_mux2_1(3) $end
$upscope $end
$upscope $end
$enddefinitions $end
#0
0!
0"
0#
0$
0%
0&
0'
0(
0)
0*
0+
0,
0-
0.
0/
00
01
02
03
04
05
06
07
08
09
0:
0;
0<
#10000000
1#
1'
1*
1.
1/
12
14
1:
1<
#20000000
1"
0'
1)
0.
0/
11
04
15
0:
0<
#30000000
1$
1'
1+
1.
1/
13
14
1:
1<
#40000000
1&
1-
10
17
18
1;
#50000000
0"
0)
00
01
05
08
0;
#60000000
1!
0'
1(
0.
19
0<
#70000000
1%
1'
1,
1.
10
16
18
1;
1<
#80000000
0%
0'
0,
0.
00
06
08
0;
0<
